%YAML 1.1
%TAG !u! tag:unity3d.com,2011:
--- !u!114 &11400000
MonoBehaviour:
  m_ObjectHideFlags: 0
  m_CorrespondingSourceObject: {fileID: 0}
  m_PrefabInstance: {fileID: 0}
  m_PrefabAsset: {fileID: 0}
  m_GameObject: {fileID: 0}
  m_Enabled: 1
  m_EditorHideFlags: 0
  m_Script: {fileID: 11500000, guid: e03907bc94821044494408c69f67a85a, type: 3}
  m_Name: CajaFuerteProp
  m_EditorClassIdentifier: 
  propName: CajaFuerte
  weight: 14
  sprite: {fileID: 21300000, guid: ce6587c13c9c5a84b83f6d0ff50b4d17, type: 3}
  friction: 0.9
