%YAML 1.1
%TAG !u! tag:unity3d.com,2011:
--- !u!114 &11400000
MonoBehaviour:
  m_ObjectHideFlags: 0
  m_CorrespondingSourceObject: {fileID: 0}
  m_PrefabInstance: {fileID: 0}
  m_PrefabAsset: {fileID: 0}
  m_GameObject: {fileID: 0}
  m_Enabled: 1
  m_EditorHideFlags: 0
  m_Script: {fileID: 11500000, guid: e03907bc94821044494408c69f67a85a, type: 3}
  m_Name: BoxAsset
  m_EditorClassIdentifier: 
  propName: Box
  weight: 5
  sprite: {fileID: 21300000, guid: be3d04a780bc53948897a1a00a407a38, type: 3}
  friction: 0.3
